…
## # A tibble: 6 x 22
##   ces_code citizenship yob   gender province_territ… education lr    lr_bef
##   <chr>    <fct>       <fct> <fct>  <fct>            <fct>     <chr> <chr> 
## 1 ces2019… Canadian c… 1989  A wom… Quebec           Master's… 2     <NA>  
## 2 ces2019… Canadian c… 1998  A wom… Quebec           Master's… 2     <NA>  
## 3 ces2019… Canadian c… 2000  A wom… Ontario          Some uni… 4     4     
## 4 ces2019… Canadian c… 1998  A man  Ontario          Some uni… 7     7     
## 5 ces2019… Canadian c… 2000  A wom… Ontario          Complete… 4     4     
## 6 ces2019… Canadian c… 1999  A wom… Ontario          Some uni… 4     4     
## # … with 14 more variables: lr_aft <chr>, religion <fct>,
## #   sexuality_selected <fct>, sexuality_text <chr>, language_eng <fct>,
## #   language_fr <fct>, language_abgl <fct>, employment <fct>, income <dbl>,
## #   income_cat <fct>, marital <fct>, econ_retro <fct>, econ_fed <fct>,
## #   econ_self <fct>
## # A tibble: 25,505 x 2
##    province_territory income
##    <fct>               <dbl>
##  1 Ontario             56000
##  2 Ontario                 0
##  3 Ontario             30000
##  4 Ontario             16000
##  5 Ontario             13000
##  6 Ontario             55000
##  7 Ontario            190000
##  8 Ontario             10000
##  9 Ontario             10000
## 10 Ontario             40000
## # … with 25,495 more rows
…
